%YAML 1.1
%TAG !u! tag:unity3d.com,2011:
--- !u!114 &11400000
MonoBehaviour:
  m_ObjectHideFlags: 0
  m_CorrespondingSourceObject: {fileID: 0}
  m_PrefabInstance: {fileID: 0}
  m_PrefabAsset: {fileID: 0}
  m_GameObject: {fileID: 0}
  m_Enabled: 1
  m_EditorHideFlags: 0
  m_Script: {fileID: 11500000, guid: de7698b5bd710814aa7b64499f9e601d, type: 3}
  m_Name: Symmetrel
  m_EditorClassIdentifier: 
  title: Symmetrel
  image: {fileID: 21300000, guid: 214a72f8770672f4d9edc87d9532a998, type: 3}
  type: 1
  text: Het medicijn Symmetrel. Dit medicijn is een glutamaat antagonist. Het kan
    het effect van dopamine versterken.
